module xorm.io/xorm

go 1.13

require (
	gitee.com/travelliu/dm v1.8.11192
	github.com/denisenkom/go-mssqldb v0.10.0
	github.com/go-sql-driver/mysql v1.6.0
	github.com/goccy/go-json v0.7.4
	github.com/jackc/pgx/v4 v4.12.0
	github.com/json-iterator/go v1.1.11
	github.com/lib/pq v1.10.2
	github.com/mattn/go-sqlite3 v1.14.8
	github.com/shopspring/decimal v1.2.0
	github.com/stretchr/testify v1.7.0
	github.com/syndtr/goleveldb v1.0.0
	github.com/ziutek/mymysql v1.5.4
	modernc.org/sqlite v1.11.2
	xorm.io/builder v0.3.9
)
